# Blender3D MTL File: ITetris.blend
# Material Count: 1
newmtl Material
Ns 96.078431
Ka 0.000000 0.000000 0.000000
Kd 0.767347 0.758548 0.503387
Ks 0.500000 0.500000 0.500000
Ni 1.000000
d 1.000000
illum 2


