# Blender3D MTL File: ZTetris.blend
# Material Count: 1
newmtl Material
Ns 96.078431
Ka 0.000000 0.000000 0.000000
Kd 0.687608 0.502386 0.741224
Ks 0.500000 0.500000 0.500000
Ni 1.000000
d 1.000000
illum 2


